…
get_exchanges_details <- function(){
  response_obj <- GET("https://api.polygon.io/v3/reference/exchanges?asset_class=stocks&apiKey=EdkA7_m2JhjS5POrGuXJbVlA4AjSl_4F")
  parsed <- fromJSON(rawToChar(response_obj$content))
  df <- as_tibble(parsed$results)  
  return(df)
}

Creation of relevant new variables

df_grouped <- get_grouped_daily("2020-11-16")
df_grouped <- df_grouped %>% mutate(percent_change = round(((close_price-open_price)/open_price)*100,2)) %>% arrange(desc(percent_change))
df_grouped$percent_change_chr <- paste(as.character(df_grouped$percent_change),'%')
df_grouped %>% select(Ticker,open_price,close_price,percent_change_chr,everything())

## # A tibble: 9,084 x 12
##    Ticker open_price close_price percent_change_chr    volume weight~1 highe~2 lowes~3 times~4 num_t~5 date  perce~6
##    <chr>       <dbl>       <dbl> <chr>                  <dbl>    <dbl>   <dbl>   <dbl>   <dbl>   <int> <chr>   <dbl>
##  1 ZXZZT     10.3        20.0    93.31 %                39298  13.3    20.0    10.3    1.61e12     332 2020~    93.3
##  2 AIRTW      0.0261      0.0395 51.34 %                49231   0.0374  0.0399  0.0261 1.61e12      19 2020~    51.3
##  3 WWR        4.31        6.27   45.48 %             36001534   5.43    6.3     4.22   1.61e12  117274 2020~    45.5
##  4 CBAT       7.9        11.3    43.04 %            107542895   9.22   11.4     7.15   1.61e12  463824 2020~    43.0
##  5 PPSI       3.02        4.29   42.05 %             12071799   4.02    4.48    3.02   1.61e12   43723 2020~    42.0
##  6 ITACW      0.350       0.48   37.1 %                 16290   0.401   0.48    0.350  1.61e12      10 2020~    37.1
##  7 BLNKW      5.74        7.86   36.89 %               283685   7.35    8.23    5.74   1.61e12    1493 2020~    36.9
##  8 NBACW      0.51        0.66   29.41 %               565422   0.587   0.680   0.51   1.61e12    1162 2020~    29.4
##  9 SGOC       0.92        1.19   29.35 %                33103   1.06    1.19    0.92   1.61e12      98 2020~    29.4
## 10 KLR.WS     1.06        1.36   28.29 %                 3978   1.10    1.36    1.06   1.61e12       7 2020~    28.3
## # ... with 9,074 more rows, and abbreviated variable names 1: weighted_avg_price, 2: highest_price,
## #   3: lowest_price, 4: timestamp, 5: num_transactions, 6: percent_change

Combining data from API Calls

ticker_symbol1 <- get_ticker_symbol(name="Apple")
df1 <- get_stocks_agg(ticker_symbol1[[1]],ticker_symbol1[[2]],start_date="2022-01-01",end_date="2022-08-31")
df1

## # A tibble: 50 x 12
##    ticker company_name       vol weighted_avg_price open_p~1 close~2 highe~3 lowes~4 times~5 num_t~6 start~7 end_d~8
##    <chr>  <chr>            <dbl>              <dbl>    <dbl>   <dbl>   <dbl>   <dbl>   <dbl>   <int> <chr>   <chr>  
##  1 AAPL   Apple Inc.   104677470               181.     178.    182.    183.    178. 1.64e12  772691 2022-0~ 2022-0~
##  2 AAPL   Apple Inc.    99110438               181.     183.    180.    183.    179. 1.64e12  831890 2022-0~ 2022-0~
##  3 AAPL   Apple Inc.    94535602               177.     180.    175.    180.    175. 1.64e12  848513 2022-0~ 2022-0~
##  4 AAPL   Apple Inc.    96882954               173.     173.    172     175.    172. 1.64e12  960340 2022-0~ 2022-0~
##  5 AAPL   Apple Inc.    86709147               172.     173.    172.    174.    171. 1.64e12  716881 2022-0~ 2022-0~
##  6 AAPL   Apple Inc.   106754551               170.     169.    172.    172.    168. 1.64e12  956337 2022-0~ 2022-0~
##  7 AAPL   Apple Inc.    76138312               174.     172.    175.    175.    171. 1.64e12  649652 2022-0~ 2022-0~
##  8 AAPL   Apple Inc.    74805173               176.     176.    176.    177.    175. 1.64e12  642756 2022-0~ 2022-0~
##  9 AAPL   Apple Inc.    84405760               174.     176.    172.    177.    172. 1.64e12  692343 2022-0~ 2022-0~
## 10 AAPL   Apple Inc.    80440778               172.     171.    173.    174.    171. 1.64e12  672552 2022-0~ 2022-0~
## # ... with 40 more rows, and abbreviated variable names 1: open_price, 2: close_price, 3: highest_price,
## #   4: lowest_price, 5: timestamp, 6: num_transactions, 7: start_date, 8: end_date

ticker_symbol2 <- get_ticker_symbol(name="Tesla")
df2 <- get_stocks_agg(ticker_symbol2[[1]],ticker_symbol2[[2]],start_date="2022-01-01",end_date="2022-08-31")
df2

## # A tibble: 50 x 12
##    ticker company_name                   vol weigh~1 open_~2 close~3 highe~4 lowes~5 times~6 num_t~7 start~8 end_d~9
##    <chr>  <chr>                        <dbl>   <dbl>   <dbl>   <dbl>   <dbl>   <dbl>   <dbl>   <int> <chr>   <chr>  
##  1 TSLA   Tesla, Inc. Common Stock 104686035    390.    383.    400.    400.    379. 1.64e12 1162844 2022-0~ 2022-0~
##  2 TSLA   Tesla, Inc. Common Stock  99798258    387.    397.    383.    403.    374. 1.64e12 1051467 2022-0~ 2022-0~
##  3 TSLA   Tesla, Inc. Common Stock  80119797    376.    382.    363.    390.    360. 1.64e12  811988 2022-0~ 2022-0~
##  4 TSLA   Tesla, Inc. Common Stock  90324504    353.    359     355.    363.    340. 1.64e12  880974 2022-0~ 2022-0~
##  5 TSLA   Tesla, Inc. Common Stock  83999748    346.    360.    342.    360.    337. 1.64e12  823560 2022-0~ 2022-0~
##  6 TSLA   Tesla, Inc. Common Stock  91814877    339.    333.    353.    353.    327. 1.64e12  971558 2022-0~ 2022-0~
##  7 TSLA   Tesla, Inc. Common Stock  66045210    353.    351.    355.    359.    346. 1.64e12  644108 2022-0~ 2022-0~
##  8 TSLA   Tesla, Inc. Common Stock  83739015    365.    360.    369.    372.    358. 1.64e12  761538 2022-0~ 2022-0~
##  9 TSLA   Tesla, Inc. Common Stock  96909162    356.    370.    344.    372.    342. 1.64e12  924351 2022-0~ 2022-0~
## 10 TSLA   Tesla, Inc. Common Stock  72916011    345.    340.    350.    351.    338. 1.64e12  710334 2022-0~ 2022-0~
## # ... with 40 more rows, and abbreviated variable names 1: weighted_avg_price, 2: open_price, 3: close_price,
## #   4: highest_price, 5: lowest_price, 6: timestamp, 7: num_transactions, 8: start_date, 9: end_date

ticker_symbol3 <- get_ticker_symbol(name="Nvidia")
df3 <- get_stocks_agg(ticker_symbol3[[1]],ticker_symbol3[[2]],start_date="2022-01-01",end_date="2022-08-31")
df3

## # A tibble: 50 x 12
##    ticker company_name      vol weighted_avg_price open_pr~1 close~2 highe~3 lowes~4 times~5 num_t~6 start~7 end_d~8
##    <chr>  <chr>           <dbl>              <dbl>     <dbl>   <dbl>   <dbl>   <dbl>   <dbl>   <int> <chr>   <chr>  
##  1 NVDA   Nvidia Corp  39240294               302.      298.    301.    307.    298. 1.64e12  585469 2022-0~ 2022-0~
##  2 NVDA   Nvidia Corp  52715440               291.      303.    293.    305.    283. 1.64e12  894297 2022-0~ 2022-0~
##  3 NVDA   Nvidia Corp  49806388               283.      289.    276.    294.    275. 1.64e12  836624 2022-0~ 2022-0~
##  4 NVDA   Nvidia Corp  45418636               280.      276.    282.    284.    271. 1.64e12  725603 2022-0~ 2022-0~
##  5 NVDA   Nvidia Corp  40993851               275.      281.    272.    284.    271. 1.64e12  639610 2022-0~ 2022-0~
##  6 NVDA   Nvidia Corp  59461560               264.      266.    274     275.    256. 1.64e12  991811 2022-0~ 2022-0~
##  7 NVDA   Nvidia Corp  40408929               275.      273.    278.    281.    268. 1.64e12  572165 2022-0~ 2022-0~
##  8 NVDA   Nvidia Corp  38341346               281.      281.    280.    286.    276. 1.64e12  562208 2022-0~ 2022-0~
##  9 NVDA   Nvidia Corp  53857879               271.      284.    266.    285.    265. 1.64e12  845316 2022-0~ 2022-0~
## 10 NVDA   Nvidia Corp  39583233               268.      263     269.    272.    262. 1.64e12  620045 2022-0~ 2022-0~
## # ... with 40 more rows, and abbreviated variable names 1: open_price, 2: close_price, 3: highest_price,
## #   4: lowest_price, 5: timestamp, 6: num_transactions, 7: start_date, 8: end_date
…
